

/Gem Systems GSM-19 9063306 v7.0 21 XI 2008 M e2.v7                              
/ID 1 file 01lok   .b   01 VII16
/datum  10000.00
/
/time nT sq 
065402.0  44914.42 99 
065502.0  44914.24 99 
065602.0  44913.97 99 
065702.0  44913.67 99 
065802.0  44913.50 99 
065902.0  44913.35 99 
070002.0  44913.24 99 
070102.0  44913.06 99 
070202.0  44913.04 99 
070302.0  44912.97 99 
070402.0  44912.83 99 
070502.0  44912.77 99 
070602.0  44912.72 99 
070702.0  44912.60 99 
070802.0  44912.63 99 
070902.0  44912.46 99 
071002.0  44912.37 99 
071102.0  44912.28 99 
071202.0  44912.10 99 
071302.0  44911.95 99 
071402.0  44911.76 99 
071502.0  44911.65 99 
071602.0  44911.42 99 
071702.0  44911.28 99 
071802.0  44910.98 99 
071902.0  44910.70 99 
072002.0  44910.39 99 
072102.0  44910.11 99 
072202.0  44909.98 99 
072302.0  44909.86 99 
072402.0  44909.64 99 
072502.0  44909.42 99 
072602.0  44909.23 99 
072702.0  44909.04 99 
072802.0  44908.86 99 
072902.0  44908.58 99 
073002.0  44908.40 99 
