/Gem Sys	tems GSM-1	9 9063306 v7.0 21 XI 2008 M e2.v7											
/ID 1 fi	le 52	.b   17VIII16											
/datum	10000.00												
/													
/time nT	45009	45092	Var L079	Var Lok									
022902.0	45009,38	45093,17	-1	-1				02.29	37141.2	68.11	-25279.1	45093.17	165.43
023002.0	45009,16	45092,84	0	0				02.30	37140.7	68.11	-25279.3	45092.84	165.40
023102.0	45008,77	45092,49	0	0				02.31	37140.1	68.10	-25279.5	45092.49	165.44
023202.0	45008,48	45092,28	-1	-1				02.32	37139.7	68.09	-25279.7	45092.28	165.44
023302.0	45008,35	45092,3	-1	-1				02.33	37139.8	68.07	-25279.7	45092.30	165.38
023402.0	45008,49	45092,38	-1	-1				02.34	37139.9	68.06	-25279.7	45092.38	165.38
023502.0	45008,51	45092,48	-1	-1				02.35	37140.1	68.05	-25279.7	45092.48	165.31
023602.0	45008,72	45092,6	-1	-1				02.36	37140.3	68.03	-25279.5	45092.60	165.38
023702.0	45008,82	45092,72	-1	-1				02.37	37140.5	68.02	-25279.4	45092.72	165.39
023802.0	45008,82	45092,69	-1	0				02.38	37140.5	68.01	-25279.4	45092.69	165.36
023902.0	45008,82	45092,66	-1	0				02.39	37140.5	67.99	-25279.4	45092.66	165.33
024002.0	45008,8	45092,61	-1	-1				02.40	37140.4	67.98	-25279.4	45092.61	165.36
024102.0	45008,67	45092,53	-1	-1				02.41	37140.3	67.95	-25279.4	45092.53	165.37
024902.0	45009,48	45093,48	-1	-1				02.42	37140.4	67.93	-25279.2	45092.57	165.44
025002.0	45009,68	45093,58	0	0				02.43	37140.7	67.91	-25279.1	45092.67	165.35
025102.0	45009,68	45093,52	0	0				02.44	37141.1	67.88	-25278.9	45092.88	165.34
025202.0	45009,53	45093,32	0	0				02.45	37141.6	67.86	-25278.6	45093.15	165.36
025302.0	45009,34	45093,19	0	0				02.46	37141.9	67.83	-25278.4	45093.27	165.35
025402.0	45009,27	45093,13	0	0				02.47	37142.2	67.81	-25278.2	45093.36	165.30
025502.0	45009,21	45093,05	0	0				02.48	37142.3	67.79	-25278.1	45093.37	165.29
025602.0	45009,21	45093,1	0	0				02.49	37142.6	67.78	-25277.9	45093.48	165.26
025702.0	45009,14	45093,06	0	0				02.50	37142.8	67.77	-25277.6	45093.58	165.36
025802.0	45009,12	45092,99	0	0				02.51	37142.9	67.75	-25277.4	45093.52	165.33
025902.0	45009,08	45092,98	0	0				02.52	37142.7	67.74	-25277.4	45093.32	165.30
030002.0	45008,94	45092,82	0	0				02.53	37142.6	67.74	-25277.3	45093.19	165.31
030102.0	45008,79	45092,63	0	0				02.54	37142.7	67.72	-25277.1	45093.13	165.28
030202.0	45008,6	45092,37	-1	-1				02.55	37142.6	67.71	-25276.9	45093.05	165.39
030302.0	45008,31	45092,14	-1	-1				02.56	37142.8	67.71	-25276.8	45093.10	165.33
030402.0	45008,06	45091,96	-1	-1				02.57	37142.9	67.71	-25276.6	45093.06	165.32
030502.0	45008,04	45091,85	-1	-1				02.58	37143.0	67.69	-25276.4	45092.99	165.28
030602.0	45007,91	45091,81	-1	-1				02.59	37143.0	67.69	-25276.3	45092.98	165.33
030702.0	45007,89	45091,81	-1	-1				03.00	37142.9	67.70	-25276.2	45092.82	165.31
030802.0	45007,89	45091,68	-1	-1				03.01	37142.7	67.69	-25276.1	45092.63	165.34
030902.0	45007,6	45091,5	-1	-1				03.02	37142.4	67.69	-25276.2	45092.37	165.27
031002.0	45007,62	45091,48	-2	-2				03.03	37142.0	67.70	-25276.2	45092.14	165.37
031102.0	45007,59	45091,58	-2	-2				03.04	37141.8	67.71	-25276.2	45091.96	165.36
031202.0	45007,85	45091,77	-2	-2				03.05	37141.7	67.71	-25276.2	45091.85	165.33
031302.0	45008,04	45091,94	-2	-1				03.06	37141.7	67.71	-25276.1	45091.81	165.35
031402.0	45008,21	45091,95	-1	-1				03.07	37141.8	67.70	-25276.0	45091.81	165.32
031502.0	45008,13	45091,69	-1	-1				03.08	37141.6	67.69	-25276.0	45091.68	165.36
031602.0	45007,81	45091,41	-1	-1				03.09	37141.3	67.69	-25276.2	45091.50	165.31
031702.0	45007,51	45091,18	-2	-2				03.10	37141.2	67.70	-25276.1	45091.48	165.43
								03.11	37141.4	67.69	-25276.0	45091.58	165.42
								03.12	37141.9	67.69	-25275.8	45091.77	165.31
								03.13	37142.2	67.68	-25275.6	45091.94	165.34
								03.14	37142.2	67.68	-25275.6	45091.95	165.35
								03.15	37141.8	67.69	-25275.8	45091.69	165.31
								03.16	37141.3	67.69	-25275.9	45091.41	165.39
								03.17	37140.9	67.69	-25276.0	45091.18	165.43
