/Gem Sys	tems GSM-1	9 9063306 v7.0 21 XI 2008 M e2.v7										
/ID 1 fi	le 50	.b   14VIII16										
/datum	10000.00											
/												
/time nT	45011,46268	45069,43659	var L116	var LOK								
071102.0	45012,49	45070,13	1,027	0,693						2016-08-21 07:11:00.000 234     37113.81    770.19	-25265.90	45070.13
071202.0	45012,44	45070,08	0,977	0,643						2016-08-21 07:12:00.000 234     37113.51    770.29	-25266.00	45070.08
071302.0	45012,35	45070	0,887	0,563						2016-08-21 07:13:00.000 234     37113.31    770.39	-25266.30	45070.00
071402.0	45012,29	45069,88	0,827	0,443						2016-08-21 07:14:00.000 234     37113.01    770.39	-25266.60	45069.88
071502.0	45012,25	45069,76	0,787	0,323						2016-08-21 07:15:00.000 234     37112.60    770.49	-25266.90	45069.76
071602.0	45012,13	45069,65	0,667	0,213						2016-08-21 07:16:00.000 234     37112.30    770.59	-25267.10	45069.65
071702.0	45012,16	45069,6	0,697	0,163						2016-08-21 07:17:00.000 234     37112.00    770.58	-25267.40	45069.60
071802.0	45012,15	45069,58	0,687	0,143						2016-08-21 07:18:00.000 234     37111.90    770.69	-25267.70	45069.58
071902.0	45012,09	45069,54	0,627	0,103						2016-08-21 07:19:00.000 234     37111.70    770.79	-25267.90	45069.54
072002.0	45012,1	45069,51	0,637	0,073						2016-08-21 07:20:00.000 234     37111.40    770.78	-25268.20	45069.51
072102.0	45011,99	45069,47	0,527	0,033						2016-08-21 07:21:00.000 234     37111.19    770.89	-25268.40	45069.47
072202.0	45011,95	45069,44	0,487	0,003						2016-08-21 07:22:00.000 234     37110.99    770.88	-25268.60	45069.44
072302.0	45011,96	45069,42	0,497	-0,017						2016-08-21 07:23:00.000 234     37110.79    770.88	-25268.80	45069.42
072402.0	45011,97	45069,43	0,507	-0,007						2016-08-21 07:24:00.000 234     37110.69    770.88	-25269.10	45069.43
072502.0	45011,89	45069,39	0,427	-0,047						2016-08-21 07:25:00.000 234     37110.49    770.98	-25269.30	45069.39
072602.0	45011,9	45069,36	0,437	-0,077						2016-08-21 07:26:00.000 234     37110.29    771.09	-25269.50	45069.36
072702.0	45011,79	45069,31	0,327	-0,127						2016-08-21 07:27:00.000 234     37110.09    771.08	-25269.80	45069.31
072802.0	45011,77	45069,3	0,307	-0,137						2016-08-21 07:28:00.000 234     37109.89    771.08	-25270.00	45069.30
072902.0	45011,72	45069,28	0,257	-0,157						2016-08-21 07:29:00.000 234     37109.69    771.18	-25270.20	45069.28
073002.0	45011,62	45069,37	0,157	-0,067						2016-08-21 07:30:00.000 234     37109.69    771.07	-25270.30	45069.37
073102.0	45011,58	45069,43	0,117	-0,007						2016-08-21 07:31:00.000 234     37109.79    771.29	-25270.30	45069.43
073202.0	45011,43	45069,5	-0,033	0,063						2016-08-21 07:32:00.000 234     37109.98    771.51	-25270.40	45069.50
073302.0	45011,42	45069,54	-0,043	0,103						2016-08-21 07:33:00.000 234     37109.78    771.62	-25270.60	45069.54
073402.0	45011,33	45069,52	-0,133	0,083						2016-08-21 07:34:00.000 234     37109.68    771.51	-25270.80	45069.52
073502.0	45011,27	45069,53	-0,193	0,093						2016-08-21 07:35:00.000 234     37109.48    771.61	-25270.90	45069.53
073602.0	45011,19	45069,52	-0,273	0,083						2016-08-21 07:36:00.000 234     37109.48    771.50	-25271.00	45069.52
073702.0	45011,14	45069,49	-0,323	0,053						2016-08-21 07:37:00.000 234     37109.38    771.61	-25271.20	45069.49
073802.0	45010,99	45069,37	-0,473	-0,067						2016-08-21 07:38:00.000 234     37109.08    771.71	-25271.40	45069.37
073902.0	45011,04	45069,33	-0,423	-0,107						2016-08-21 07:39:00.000 234     37108.88    771.70	-25271.60	45069.33
074002.0	45010,9	45069,27	-0,563	-0,167						2016-08-21 07:40:00.000 234     37108.68    771.70	-25271.80	45069.27
074102.0	45010,9	45069,25	-0,563	-0,187						2016-08-21 07:41:00.000 234     37108.57    771.81	-25271.90	45069.25
074202.0	45010,8	45069,25	-0,663	-0,187						2016-08-21 07:42:00.000 234     37108.47    771.80	-25272.00	45069.25
074302.0	45010,73	45069,23	-0,733	-0,207						2016-08-21 07:43:00.000 234     37108.37    771.80	-25272.20	45069.23
074402.0	45010,68	45069,16	-0,783	-0,277						2016-08-21 07:44:00.000 234     37108.27    771.80	-25272.30	45069.16
074502.0	45010,58	45069,19	-0,883	-0,247						2016-08-21 07:45:00.000 234     37108.17    771.80	-25272.50	45069.19
074602.0	45010,59	45069,13	-0,873	-0,307						2016-08-21 07:46:00.000 234     37107.97    771.79	-25272.60	45069.13
074702.0	45010,53	45069,12	-0,933	-0,317						2016-08-21 07:47:00.000 234     37107.87    771.90	-25272.70	45069.12
074802.0	45010,45	45069,13	-1,013	-0,307						2016-08-21 07:48:00.000 234     37107.77    771.90	-25272.80	45069.13
074902.0	45010,49	45069,13	-0,973	-0,307						2016-08-21 07:49:00.000 234     37107.67    771.90	-25272.90	45069.13
075002.0	45010,45	45069,17	-1,013	-0,267						2016-08-21 07:50:00.000 234     37107.67    771.90	-25273.10	45069.17
075102.0	45010,47	45069,14	-0,993	-0,297						2016-08-21 07:51:00.000 234     37107.57    771.89	-25273.30	45069.14
