

/Gem Systems GSM-19 9063306 v7.0 21 XI 2008 M e2.v7                              
/ID 1 file 08lok   .b   03VIII16
/datum  10000.00
/
/time nT sq 
065102.0  44668.41 99 
065202.0  44667.98 99 
065302.0  44667.70 99 
065402.0  44667.72 99 
065502.0  44667.67 99 
065602.0  44667.74 99 
065702.0  44667.62 99 
065802.0  44667.44 99 
065902.0  44667.23 99 
070002.0  44667.56 99 
070102.0  44667.76 99 
070202.0  44667.96 99 
070302.0  44667.77 99 
070402.0  44667.77 99 
070502.0  44667.80 99 
070602.0  44668.19 99 
070702.0  44668.39 99 
070802.0  44668.28 99 
070902.0  44668.56 99 
071202.0  44663.97 99 
071302.0  44660.51 99 
071402.0  44667.93 99 
071502.0  44667.54 99 
071802.0  44668.42 99 
071902.0  44668.91 99 
072002.0  44668.97 99 
072102.0  44668.77 99 
072202.0  44668.79 99 
072302.0  44668.96 99 
072402.0  44669.02 99 
072502.0  44668.92 99 
072602.0  44668.95 99 
072702.0  44669.05 99 
072802.0  44669.14 99 
072902.0  44669.51 99 
073002.0  44669.74 99 
073102.0  44669.49 99 
073202.0  44669.86 99 
073302.0  44670.27 99 
073402.0  44670.45 99 
073502.0  44669.58 99 
073602.0  44670.34 99 
