

/Gem Systems GSM-19 9063306 v7.0 21 XI 2008 M e2.v7                              
/ID 1 file 34      .b   06VIII16
/datum  10000.00
/
/time nT sq 
065902.0  45106.30 99 
070002.0  45106.25 99 
070102.0  45105.82 99 
070202.0  45105.70 99 
070302.0  45105.72 99 
070402.0  45105.52 99 
070502.0  45105.30 99 
070602.0  45105.21 99 
070702.0  45105.03 99 
070802.0  45104.95 99 
070902.0  45104.68 99 
071002.0  45104.38 99 
071102.0  45104.02 99 
071202.0  45104.10 99 
071302.0  45103.78 99 
071402.0  45103.77 99 
071502.0  45103.69 99 
071602.0  45103.63 99 
071702.0  45103.46 99 
071802.0  45103.41 99 
071902.0  45103.34 99 
072002.0  45103.19 99 
072102.0  45103.31 99 
072202.0  45103.23 99 
072302.0  45102.81 99 
072402.0  45102.87 99 
072502.0  45102.64 99 
072602.0  45102.49 99 
072702.0  45102.28 99 
072802.0  45102.13 99 
072902.0  45101.97 99 
073002.0  45101.55 99 
073102.0  45101.43 99 
073202.0  45101.27 99 
073302.0  45100.99 99 
073402.0  45100.93 99 
073502.0  45100.97 99 
073602.0  45100.86 99 
073702.0  45100.76 99 
073802.0  45100.62 99 
073902.0  45100.60 99 
