

/Gem Systems GSM-19 9063306 v7.0 21 XI 2008 M e2.v7                              
/ID 1 file 28      .b   05VIII16
/datum  10000.00
/
/time nT sq 
091802.0  44920.18 99 
091902.0  44920.49 99 
092002.0  44920.84 99 
092102.0  44921.09 99 
092202.0  44921.42 99 
092302.0  44921.40 99 
092402.0  44921.50 99 
092502.0  44921.77 99 
092602.0  44921.43 99 
092702.0  44921.48 99 
092802.0  44921.57 99 
092902.0  44921.52 99 
093002.0  44921.46 99 
093102.0  44921.60 99 
093202.0  44921.64 99 
093302.0  44921.77 99 
093402.0  44921.88 99 
093502.0  44922.01 99 
093602.0  44921.94 99 
093702.0  44921.81 99 
093802.0  44921.43 99 
093902.0  44921.47 99 
094002.0  44921.41 99 
094102.0  44921.67 99 
094202.0  44921.34 99 
094302.0  44921.02 99 
094402.0  44920.79 99 
094502.0  44920.46 99 
094602.0  44920.34 99 
094702.0  44920.28 99 
094802.0  44920.12 99 
094902.0  44919.89 99 
095002.0  44919.88 99 
095102.0  44919.71 99 
095202.0  44919.37 99 
095302.0  44919.06 99 
095402.0  44919.02 99 
095502.0  44918.68 99 
095602.0  44918.66 99 
095702.0  44918.71 99 
095802.0  44918.52 99 
