

/Gem Systems GSM-19 9063306 v7.0 21 XI 2008 M e2.v7                              
/ID 1 file 23      .b   05VIII16
/datum  10000.00
/
/time nT sq 
033702.0  44955.76 99 
033802.0  44955.70 99 
033902.0  44955.78 99 
034002.0  44955.85 99 
034102.0  44955.88 99 
034202.0  44955.99 99 
034302.0  44956.07 99 
034402.0  44955.99 99 
034502.0  44955.95 99 
034602.0  44955.80 99 
034702.0  44955.71 99 
034802.0  44955.86 99 
034902.0  44955.92 99 
035002.0  44956.01 99 
035102.0  44956.18 99 
035202.0  44956.39 99 
035302.0  44956.45 99 
035402.0  44956.59 99 
035502.0  44956.79 99 
035602.0  44956.83 99 
035702.0  44956.69 99 
035802.0  44956.71 99 
035902.0  44956.78 99 
040002.0  44956.93 99 
040102.0  44957.00 99 
040202.0  44956.95 99 
040302.0  44957.14 99 
040402.0  44956.75 99 
040502.0  44957.03 99 
040602.0  44957.01 99 
040702.0  44957.02 99 
040802.0  44956.52 99 
040902.0  44956.01 99 
041002.0  44955.46 99 
041102.0  44955.18 99 
041202.0  44955.05 99 
041302.0  44954.96 99 
041402.0  44955.02 99 
041502.0  44955.20 99 
041602.0  44955.47 99 
041702.0  44955.47 99 
